<?xml version="1.0" encoding="UTF-8" standalone="no"?>
<!-- Created with Inkscape (http://www.inkscape.org/) -->
<svg
   xmlns:dc="http://purl.org/dc/elements/1.1/"
   xmlns:cc="http://creativecommons.org/ns#"
   xmlns:rdf="http://www.w3.org/1999/02/22-rdf-syntax-ns#"
   xmlns:svg="http://www.w3.org/2000/svg"
   xmlns="http://www.w3.org/2000/svg"
   xmlns:xlink="http://www.w3.org/1999/xlink"
   xmlns:sodipodi="http://sodipodi.sourceforge.net/DTD/sodipodi-0.dtd"
   xmlns:inkscape="http://www.inkscape.org/namespaces/inkscape"
   width="50"
   height="46"
   id="svg2715"
   sodipodi:version="0.32"
   inkscape:version="0.46"
   version="1.0"
   sodipodi:docname="slideout-no-header-solid.svg"
   inkscape:output_extension="org.inkscape.output.svg.inkscape">
  <defs
     id="defs2717">
    <linearGradient
       id="linearGradient3225">
      <stop
         style="stop-color:#3e6179;stop-opacity:1;"
         offset="0"
         id="stop3227" />
      <stop
         style="stop-color:#839bab;stop-opacity:1;"
         offset="1"
         id="stop3229" />
    </linearGradient>
    <linearGradient
       inkscape:collect="always"
       xlink:href="#linearGradient3225"
       id="linearGradient2442"
       gradientUnits="userSpaceOnUse"
       gradientTransform="translate(0,7)"
       x1="25"
       y1="23"
       x2="25"
       y2="3" />
  </defs>
  <sodipodi:namedview
     id="base"
     pagecolor="#ffffff"
     bordercolor="#666666"
     borderopacity="1.0"
     gridtolerance="10000"
     guidetolerance="10"
     objecttolerance="10"
     inkscape:pageopacity="0.0"
     inkscape:pageshadow="2"
     inkscape:zoom="15.999999"
     inkscape:cx="25.355319"
     inkscape:cy="22.343204"
     inkscape:document-units="px"
     inkscape:current-layer="layer1"
     showgrid="true"
     showborder="true"
     inkscape:window-width="1195"
     inkscape:window-height="1001"
     inkscape:window-x="205"
     inkscape:window-y="24"
     showguides="true"
     inkscape:guide-bbox="true">
    <inkscape:grid
       type="xygrid"
       id="grid2725"
       visible="true"
       enabled="true"
       spacingx="1px"
       spacingy="1px" />
  </sodipodi:namedview>
  <metadata
     id="metadata2720">
    <rdf:RDF>
      <cc:Work
         rdf:about="">
        <dc:format>image/svg+xml</dc:format>
        <dc:type
           rdf:resource="http://purl.org/dc/dcmitype/StillImage" />
      </cc:Work>
    </rdf:RDF>
  </metadata>
  <g
     inkscape:label="Layer 1"
     inkscape:groupmode="layer"
     id="layer1"
     transform="translate(0,-1)">
    <path
       style="fill:#345b75;fill-opacity:1;fill-rule:evenodd;stroke:none;stroke-width:1px;stroke-linecap:butt;stroke-linejoin:miter;stroke-opacity:1"
       d="M 2,-7 C 2,-7 2,35 2,35 L 48,35 L 48,-7 C 48,-7 2,-7 2,-7 z"
       id="path3529"
       sodipodi:nodetypes="ccccc"
       transform="translate(0,10)" />
    <path
       sodipodi:nodetypes="cccccccccc"
       id="path2954"
       d="M 0,1 C 0,1 0,47 0,47 C 14.166667,47 50,47 50,47 C 50,47 50,1 50,1 C 50,1 0,1 0,1 z M 49,2 L 49,46 L 1,46 L 1,2 C 1,2 49,2 49,2 z"
       style="fill:#414d55;fill-opacity:1;fill-rule:nonzero;stroke:none;stroke-width:1;stroke-linecap:butt;stroke-linejoin:miter;marker:none;stroke-miterlimit:4;stroke-dasharray:none;stroke-dashoffset:0;stroke-opacity:1;visibility:visible;display:inline;overflow:visible" />
    <path
       sodipodi:nodetypes="cccccccccccc"
       id="path2956"
       d="M 1,2 L 1,46 L 42.5,46 C 46.092351,46 49,46 49,46 C 49,46 49,2 49,2 C 49,2 1,2 1,2 z M 2,3 L 48,3 L 48,45 C 48,45 45.555649,45 42.5,45 C 29,45 15.5,45 2,45 C 2,45 2,3 2,3 z"
       style="fill:url(#linearGradient2442);fill-opacity:1;fill-rule:nonzero;stroke:none;stroke-width:1;stroke-linecap:butt;stroke-linejoin:miter;marker:none;stroke-miterlimit:4;stroke-dasharray:none;stroke-dashoffset:0;stroke-opacity:1;visibility:visible;display:inline;overflow:visible" />
  </g>
</svg>
