<?xml version="1.0" encoding="UTF-8" standalone="no"?>
<!-- Created with Inkscape (http://www.inkscape.org/) -->
<svg
   xmlns:dc="http://purl.org/dc/elements/1.1/"
   xmlns:cc="http://creativecommons.org/ns#"
   xmlns:rdf="http://www.w3.org/1999/02/22-rdf-syntax-ns#"
   xmlns:svg="http://www.w3.org/2000/svg"
   xmlns="http://www.w3.org/2000/svg"
   xmlns:xlink="http://www.w3.org/1999/xlink"
   xmlns:sodipodi="http://sodipodi.sourceforge.net/DTD/sodipodi-0.dtd"
   xmlns:inkscape="http://www.inkscape.org/namespaces/inkscape"
   width="40"
   height="20"
   id="svg2715"
   sodipodi:version="0.32"
   inkscape:version="0.46"
   version="1.0"
   sodipodi:docname="header-right-prelight.svg"
   inkscape:output_extension="org.inkscape.output.svg.inkscape">
  <defs
     id="defs2717">
    <linearGradient
       id="linearGradient5058">
      <stop
         style="stop-color:#ffffff;stop-opacity:1;"
         offset="0"
         id="stop5060" />
      <stop
         style="stop-color:#cbd9e4;stop-opacity:1;"
         offset="1"
         id="stop5062" />
    </linearGradient>
    <linearGradient
       id="linearGradient3531">
      <stop
         style="stop-color:#96afc0;stop-opacity:1;"
         offset="0"
         id="stop3533" />
      <stop
         style="stop-color:#c6c9d2;stop-opacity:1;"
         offset="1"
         id="stop3535" />
    </linearGradient>
    <inkscape:perspective
       sodipodi:type="inkscape:persp3d"
       inkscape:vp_x="0 : 526.18109 : 1"
       inkscape:vp_y="0 : 1000 : 0"
       inkscape:vp_z="744.09448 : 526.18109 : 1"
       inkscape:persp3d-origin="372.04724 : 350.78739 : 1"
       id="perspective2723" />
    <linearGradient
       inkscape:collect="always"
       xlink:href="#linearGradient3531"
       id="linearGradient3537"
       x1="5"
       y1="5"
       x2="45"
       y2="45"
       gradientUnits="userSpaceOnUse"
       gradientTransform="translate(0,1)" />
    <linearGradient
       inkscape:collect="always"
       xlink:href="#linearGradient3531"
       id="linearGradient3162"
       gradientUnits="userSpaceOnUse"
       x1="25"
       y1="2"
       x2="25"
       y2="19" />
    <linearGradient
       inkscape:collect="always"
       xlink:href="#linearGradient3531"
       id="linearGradient3787"
       gradientUnits="userSpaceOnUse"
       x1="25"
       y1="2"
       x2="25"
       y2="19" />
    <linearGradient
       inkscape:collect="always"
       xlink:href="#linearGradient3531"
       id="linearGradient3812"
       gradientUnits="userSpaceOnUse"
       x1="25"
       y1="2"
       x2="25"
       y2="19"
       gradientTransform="matrix(-1,0,0,1,40,0)" />
    <linearGradient
       inkscape:collect="always"
       xlink:href="#linearGradient5058"
       id="linearGradient5064"
       x1="40"
       y1="2"
       x2="40"
       y2="19"
       gradientUnits="userSpaceOnUse"
       gradientTransform="translate(-40,0)" />
    <linearGradient
       inkscape:collect="always"
       xlink:href="#linearGradient5058"
       id="linearGradient5090"
       gradientUnits="userSpaceOnUse"
       gradientTransform="translate(-39,0)"
       x1="40"
       y1="2"
       x2="40"
       y2="19" />
    <linearGradient
       inkscape:collect="always"
       xlink:href="#linearGradient5058"
       id="linearGradient5093"
       gradientUnits="userSpaceOnUse"
       gradientTransform="translate(-39,0)"
       x1="54"
       y1="19"
       x2="54"
       y2="1" />
  </defs>
  <sodipodi:namedview
     id="base"
     pagecolor="#ffffff"
     bordercolor="#666666"
     borderopacity="1.0"
     gridtolerance="10000"
     guidetolerance="10"
     objecttolerance="10"
     inkscape:pageopacity="0.0"
     inkscape:pageshadow="2"
     inkscape:zoom="16"
     inkscape:cx="1.794284"
     inkscape:cy="4.1751996"
     inkscape:document-units="px"
     inkscape:current-layer="layer1"
     showgrid="true"
     showborder="true"
     inkscape:window-width="1400"
     inkscape:window-height="1000"
     inkscape:window-x="0"
     inkscape:window-y="24">
    <inkscape:grid
       type="xygrid"
       id="grid2725"
       visible="true"
       enabled="true"
       spacingx="1px"
       spacingy="1px" />
  </sodipodi:namedview>
  <metadata
     id="metadata2720">
    <rdf:RDF>
      <cc:Work
         rdf:about="">
        <dc:format>image/svg+xml</dc:format>
        <dc:type
           rdf:resource="http://purl.org/dc/dcmitype/StillImage" />
      </cc:Work>
    </rdf:RDF>
  </metadata>
  <g
     inkscape:label="Layer 1"
     inkscape:groupmode="layer"
     id="layer1">
    <path
       style="fill:url(#linearGradient3812);fill-opacity:1.0;fill-rule:evenodd;stroke:none;stroke-width:1px;stroke-linecap:butt;stroke-linejoin:miter;stroke-opacity:1"
       d="M 35,1 L 39,5 L 39,20 L 0,20 L 0,1 L 35,1 z"
       id="path3529"
       sodipodi:nodetypes="cccccc" />
    <g
       id="g2388"
       style="enable-background:new"
       transform="matrix(-1,0,0,1,40,0)">
      <path
         style="opacity:1;fill:url(#linearGradient5093);fill-opacity:1;fill-rule:nonzero;stroke:none;stroke-width:2;stroke-linecap:butt;stroke-linejoin:miter;marker:none;marker-start:none;marker-mid:none;marker-end:none;stroke-miterlimit:4;stroke-dasharray:none;stroke-dashoffset:0;stroke-opacity:1;visibility:visible;display:inline;overflow:visible;enable-background:accumulate;comp-op:plus"
         d="M 0,1 C 0,1 0,2 0,2 L 0,19 L 1,19 L 1,2 L 32.5,2 C 35.555649,2 38,4.4443514 38,7.5 L 38,19 L 39,19 L 39,7.5 C 39,3.9076486 36.092351,1 32.5,1 L 0,1 z"
         transform="matrix(-1,0,0,1,40,0)"
         id="rect5056"
         sodipodi:nodetypes="cccccccccccc" />
      <path
         style="opacity:1;fill:#414d55;fill-opacity:1;fill-rule:nonzero;stroke:none;stroke-width:1;stroke-linecap:butt;stroke-linejoin:miter;marker:none;stroke-miterlimit:4;stroke-dasharray:none;stroke-dashoffset:0;stroke-opacity:1;visibility:visible;display:inline;overflow:visible;enable-background:accumulate;comp-op:plus"
         d="M 7.5,0 C 3.3536486,0 0,3.3536486 0,7.5 L 0,20 L 1,20 L 1,7.5 C 1,3.8903514 3.8903514,1 7.5,1 L 40,1 C 40,1 40,0 40,0 L 7.5,0 z"
         id="rect3509"
         sodipodi:nodetypes="ccccccccc" />
      <rect
         style="opacity:1;fill:#849bab;fill-opacity:1;fill-rule:nonzero;stroke:none;stroke-width:2;stroke-linecap:butt;stroke-linejoin:miter;marker:none;marker-start:none;marker-mid:none;marker-end:none;stroke-miterlimit:4;stroke-dasharray:none;stroke-dashoffset:0;stroke-opacity:1;visibility:visible;display:inline;overflow:visible;enable-background:accumulate;comp-op:plus"
         id="rect5097"
         width="0"
         height="0"
         x="33"
         y="2"
         transform="matrix(-1,0,0,1,40,0)" />
      <rect
         style="opacity:1;fill:#8b96ba;fill-opacity:1;fill-rule:nonzero;stroke:none;stroke-width:2;stroke-linecap:butt;stroke-linejoin:miter;marker:none;marker-start:none;marker-mid:none;marker-end:none;stroke-miterlimit:4;stroke-dasharray:none;stroke-dashoffset:0;stroke-opacity:1;visibility:visible;display:inline;overflow:visible;enable-background:accumulate;comp-op:plus"
         id="rect5099"
         width="1"
         height="1"
         x="38"
         y="19"
         transform="matrix(-1,0,0,1,40,0)" />
    </g>
    <rect
       style="opacity:1;fill:#264356;fill-opacity:1;fill-rule:nonzero;stroke:none;stroke-width:2;stroke-linecap:butt;stroke-linejoin:miter;marker:none;marker-start:none;marker-mid:none;marker-end:none;stroke-miterlimit:4;stroke-dasharray:none;stroke-dashoffset:0;stroke-opacity:1;visibility:visible;display:inline;overflow:visible;enable-background:accumulate"
       id="rect3267"
       width="38"
       height="1"
       x="-38"
       y="19"
       transform="scale(-1,1)" />
  </g>
</svg>
