<?xml version="1.0" encoding="UTF-8" standalone="no"?>
<!-- Created with Inkscape (http://www.inkscape.org/) -->
<svg
   xmlns:dc="http://purl.org/dc/elements/1.1/"
   xmlns:cc="http://creativecommons.org/ns#"
   xmlns:rdf="http://www.w3.org/1999/02/22-rdf-syntax-ns#"
   xmlns:svg="http://www.w3.org/2000/svg"
   xmlns="http://www.w3.org/2000/svg"
   xmlns:xlink="http://www.w3.org/1999/xlink"
   xmlns:sodipodi="http://sodipodi.sourceforge.net/DTD/sodipodi-0.dtd"
   xmlns:inkscape="http://www.inkscape.org/namespaces/inkscape"
   width="17"
   height="50"
   id="svg2715"
   sodipodi:version="0.32"
   inkscape:version="0.46"
   version="1.0"
   sodipodi:docname="stock-collapsed.svg"
   inkscape:output_extension="org.inkscape.output.svg.inkscape">
  <defs
     id="defs2717">
    <linearGradient
       id="linearGradient3249">
      <stop
         style="stop-color:#577e9a;stop-opacity:1;"
         offset="0"
         id="stop3251" />
      <stop
         style="stop-color:#416782;stop-opacity:1;"
         offset="1"
         id="stop3253" />
    </linearGradient>
    <linearGradient
       id="linearGradient3225">
      <stop
         style="stop-color:#3e6179;stop-opacity:1;"
         offset="0"
         id="stop3227" />
      <stop
         style="stop-color:#839bab;stop-opacity:1;"
         offset="1"
         id="stop3229" />
    </linearGradient>
    <linearGradient
       id="linearGradient3531">
      <stop
         style="stop-color:#bcbcbc;stop-opacity:0.78431374;"
         offset="0"
         id="stop3533" />
      <stop
         style="stop-color:#0000ff;stop-opacity:0.50196081;"
         offset="1"
         id="stop3535" />
    </linearGradient>
    <inkscape:perspective
       sodipodi:type="inkscape:persp3d"
       inkscape:vp_x="0 : 526.18109 : 1"
       inkscape:vp_y="0 : 1000 : 0"
       inkscape:vp_z="744.09448 : 526.18109 : 1"
       inkscape:persp3d-origin="372.04724 : 350.78739 : 1"
       id="perspective2723" />
    <linearGradient
       inkscape:collect="always"
       xlink:href="#linearGradient3531"
       id="linearGradient3537"
       x1="5"
       y1="5"
       x2="45"
       y2="45"
       gradientUnits="userSpaceOnUse"
       gradientTransform="translate(0,1)" />
    <linearGradient
       inkscape:collect="always"
       xlink:href="#linearGradient3531"
       id="linearGradient3162"
       gradientUnits="userSpaceOnUse"
       x1="5"
       y1="5"
       x2="45"
       y2="45" />
    <inkscape:perspective
       id="perspective3204"
       inkscape:persp3d-origin="372.04724 : 350.78739 : 1"
       inkscape:vp_z="744.09448 : 526.18109 : 1"
       inkscape:vp_y="0 : 1000 : 0"
       inkscape:vp_x="0 : 526.18109 : 1"
       sodipodi:type="inkscape:persp3d" />
    <linearGradient
       inkscape:collect="always"
       xlink:href="#linearGradient3249"
       id="linearGradient3255"
       x1="25"
       y1="38"
       x2="25"
       y2="23"
       gradientUnits="userSpaceOnUse"
       gradientTransform="matrix(0,-1,1,0,-8,67)" />
  </defs>
  <sodipodi:namedview
     id="base"
     pagecolor="#ffffff"
     bordercolor="#666666"
     borderopacity="1.0"
     gridtolerance="10000"
     guidetolerance="10"
     objecttolerance="10"
     inkscape:pageopacity="0.0"
     inkscape:pageshadow="2"
     inkscape:zoom="15.999999"
     inkscape:cx="8.4793382"
     inkscape:cy="29.353672"
     inkscape:document-units="px"
     inkscape:current-layer="g2388"
     showgrid="true"
     showborder="true"
     inkscape:window-width="1400"
     inkscape:window-height="1000"
     inkscape:window-x="0"
     inkscape:window-y="24"
     showguides="true"
     inkscape:guide-bbox="true">
    <inkscape:grid
       type="xygrid"
       id="grid2725"
       visible="true"
       enabled="true"
       spacingx="1px"
       spacingy="1px" />
  </sodipodi:namedview>
  <metadata
     id="metadata2720">
    <rdf:RDF>
      <cc:Work
         rdf:about="">
        <dc:format>image/svg+xml</dc:format>
        <dc:type
           rdf:resource="http://purl.org/dc/dcmitype/StillImage" />
      </cc:Work>
    </rdf:RDF>
  </metadata>
  <g
     inkscape:label="Layer 1"
     inkscape:groupmode="layer"
     id="layer1"
     transform="translate(-15,-17)">
    <path
       style="fill:url(#linearGradient3255);fill-opacity:1;fill-rule:evenodd;stroke:none;stroke-width:1px;stroke-linecap:butt;stroke-linejoin:miter;stroke-opacity:1"
       d="M 15,66 L 27,66 L 31,62 L 31,22 L 27,18 L 15,18 L 15,66 z"
       id="path3529"
       sodipodi:nodetypes="ccccccc" />
    <g
       id="g2388"
       style="enable-background:new"
       transform="matrix(0,-1,1,0,-18,67)">
      <path
         style="opacity:1;fill:#414d55;fill-opacity:1;fill-rule:nonzero;stroke:none;stroke-width:1;stroke-linecap:butt;stroke-linejoin:miter;marker:none;stroke-miterlimit:4;stroke-dasharray:none;stroke-dashoffset:0;stroke-opacity:1;visibility:visible;display:inline;overflow:visible;enable-background:accumulate;comp-op:plus"
         d="M 0,23 L 0,32.5 C 0,36.646351 3.3536486,40 7.5,40 L 42.5,40 C 46.646351,40 50,36.646351 50,32.5 L 50,23 L 49,23 L 49,32.5 C 49,36.109649 46.109649,39 42.5,39 L 7.5,39 C 3.8903514,39 1,36.109649 1,32.5 L 1,23 L 0,23 z"
         transform="translate(0,10)"
         id="rect3509"
         sodipodi:nodetypes="ccccccccccccc" />
      <path
         style="opacity:1;fill:#8099a9;fill-opacity:1;fill-rule:nonzero;stroke:none;stroke-width:1;stroke-linecap:butt;stroke-linejoin:miter;marker:none;stroke-miterlimit:4;stroke-dasharray:none;stroke-dashoffset:0;stroke-opacity:1;visibility:visible;display:inline;overflow:visible;enable-background:accumulate;comp-op:plus"
         d="M 1,23 L 1,32.5 C 1,36.092351 3.9076486,39 7.5,39 L 42.5,39 C 46.092351,39 49,36.092351 49,32.5 L 49,23 L 48,23 L 48,32.5 C 48,35.555649 45.555649,38 42.5,38 L 7.5,38 C 4.4443514,38 2,35.555649 2,32.5 L 2,23 L 1,23 z"
         transform="translate(0,10)"
         id="rect3511"
         sodipodi:nodetypes="ccccccccccccc" />
    </g>
  </g>
</svg>
